Exam 1 Practice Problems
…
Currently, salary values in both data sets are expressed in units of dollars. Create new variables to re-express the salaries in units of millions of dollars. For example, if a player has a salary of $1,200,000, this would be expressed as 1.2 in the transformed vectors. Use these transformed vectors for all subsequent parts of this problem.

MLB02 <-  mutate(MLB2002, salaryM = round(salary / 1000000, digits = 1))

MLB13 <-  mutate(MLB2013, salaryM = round(salary / 1000000, digits = 1))

On average, which team paid its players the least in 2002? in 2013?

MLB02 %>%
  group_by(team) %>%
  summarize(avg = mean(salaryM)) %>%
  arrange(avg)

# A tibble: 30 x 2
   team                   avg
   <fct>                <dbl>
 1 Tampa Bay Devil Rays  1.23
 2 Montreal Expos        1.37
 3 San Diego Padres      1.42
 4 Pittsburgh Pirates    1.46
 5 Oakland A's           1.48
 6 Cincinnati Reds       1.49
 7 Florida Marlins       1.50
 8 MinnesotaTwins        1.54
 9 KansasCity Royals     1.63
10 Milwaukee Brewers     1.73
# ... with 20 more rows

MLB13 %>%
  group_by(team) %>%
  summarize(avg = mean(salaryM))  %>%
  arrange(avg)

# A tibble: 30 x 2
   team                   avg
   <fct>                <dbl>
 1 Houston Astros       0.888
 2 Oakland Athletics    1.38 
 3 Miami Marlins        1.41 
 4 San Diego Padres     1.78 
 5 Tampa Bay Rays       2.14 
 6 Arizona Diamondbacks 2.27 
 7 Colorado Rockies     2.30 
 8 Cleveland Indians    2.31 
 9 New York Mets        2.41 
10 Seattle Mariners     2.44 
# ... with 20 more rows
…
